<?xml version="1.0" encoding="UTF-8"?>
<Project>
   <description></description>
   <name>Chatdaddy_Automation_Task</name>
   <tag></tag>
   <UUID>7b4021a8-8cf9-48bf-b915-3ab09d24222c</UUID>
   <createdEdition>ENTERPRISE</createdEdition>
   <createdVersion>9.4.0</createdVersion>
   <freeLicense>false</freeLicense>
   <migratedVersion>5.9.0</migratedVersion>
   <modifiedEdition>ENTERPRISE</modifiedEdition>
   <modifiedVersion>9.4.0</modifiedVersion>
   <pageLoadTimeout>0</pageLoadTimeout>
   <projectFileLocation>C:\Users\abira\OneDrive\Desktop\Chatdaddy_Automation_Task\Chatdaddy_Automation_Task.prj</projectFileLocation>
   <sourceContent>
      <sourceFolderList>
         <sourceFolderConfiguration>
            <url>Include/scripts/groovy</url>
         </sourceFolderConfiguration>
      </sourceFolderList>
      <systemFolderList>
         <systemFolderConfiguration>
            <url>Include/scripts/groovy</url>
         </systemFolderConfiguration>
         <systemFolderConfiguration>
            <url>Include/features</url>
         </systemFolderConfiguration>
         <systemFolderConfiguration>
            <url>Include/config</url>
         </systemFolderConfiguration>
      </systemFolderList>
   </sourceContent>
   <timeStampInProperties>false</timeStampInProperties>
   <type>WEBUI</type>
</Project>
